{
	"ImportPath": "github.com/wiliamsouza/apollo",
	"GoVersion": "go1.2.1",
	"Packages": [
		"./..."
	],
	"Deps": [
		{
			"ImportPath": "code.google.com/p/go-uuid/uuid",
			"Comment": "null-10",
			"Rev": "5fac954758f5aa282478dc07fbb8709fe9575184"
		},
		{
			"ImportPath": "code.google.com/p/go.crypto/bcrypt",
			"Comment": "null-189",
			"Rev": "61c59dda830a42de20e0152d4deefa5320d0e131"
		},
		{
			"ImportPath": "code.google.com/p/go.crypto/blowfish",
			"Comment": "null-189",
			"Rev": "61c59dda830a42de20e0152d4deefa5320d0e131"
		},
		{
			"ImportPath": "github.com/codegangsta/inject",
			"Rev": "8822b072a3636c1a365c68e1004efd5bf8ab500f"
		},
		{
			"ImportPath": "github.com/dgrijalva/jwt-go",
			"Rev": "f80fd39457122ccbaf05ac1881b7f3a0a7fbcbf3"
		},
		{
			"ImportPath": "github.com/go-martini/martini",
			"Comment": "v0.1-157-gf8f9fcb",
			"Rev": "f8f9fcb8a24a4bb44388fc55e27f22c4ae17a828"
		},
		{
			"ImportPath": "github.com/gorilla/websocket",
			"Rev": "92334662baa9cbebc2e6e68b8d56bc1233f85a4c"
		},
		{
			"ImportPath": "github.com/howeyc/fsnotify",
			"Rev": "effe075d9a3789af4908657b3a8e7a2de3c3b040"
		},
		{
			"ImportPath": "github.com/martini-contrib/cors",
			"Rev": "e4ca31a01a07c2ae684fd7b44fa49bbb26f2a14a"
		},
		{
			"ImportPath": "github.com/tsuru/config",
			"Rev": "caf5fe2f55dfaf63564a929bda3d722181e6d770"
		},
		{
			"ImportPath": "labix.org/v2/mgo",
			"Comment": "253",
			"Rev": "gustavo@niemeyer.net-20131210224142-gtc8ap0sa0roxesc"
		},
		{
			"ImportPath": "launchpad.net/gocheck",
			"Comment": "85",
			"Rev": "gustavo@niemeyer.net-20130302024745-6ikofwq2c03h7giu"
		},
		{
			"ImportPath": "launchpad.net/goyaml",
			"Comment": "50",
			"Rev": "gustavo@niemeyer.net-20131114120802-abe042syx64z2m7s"
		}
	]
}
